From 
http://www.fao.org/docrep/X0490E/x0490e0b.htm
comments and notes there are very useful and should be read.
Crop,Kc ini,Kc mid,Kc End,Ln ini,Ln dev,Ln mid,Ln late,GDD Basetemp,GDD Uppertemp
Bean,0.15,1.19,0.35,25,25,30,20,5.1,30.5
