From 
http://www.fao.org/docrep/X0490E/x0490e0b.htm
comments and notes there are very useful and should be read.
Crop,Kc ini,Kc mid,Kc End,Ln ini,Ln dev,Ln mid,Ln late,GDD Basetemp,GDD Uppertemp
Lettuce,0.7,1.20,0.85,25,35,30,10,5.0,36.0
